[
 {
 "uid": 3546695902169443,
 "name": "半糖奶茶学姐"
 },
 {
 "uid": 26160019,
 "name": "不许软软ss"
 },
 {
 "uid": 390794053,
 "name": "EndoraDore"
 },
 {
 "uid": 3546646356953819,
 "name": "SS美妹"
 },
 {
 "uid": 390603612,
 "name": "乖橘宝哦"
 },
 {
 "uid": 3546679020096476,
 "name": "幂幂桃吖"
 },
 {
 "uid": 3546566428199900,
 "name": "是你的喵喵姐"
 },
 {
 "uid": 3546692819355937,
 "name": "林美美女王"
 },
 {
 "uid": 3546668398021423,
 "name": "金橙米乳奶茶"
 },
 {
 "uid": 3546696124467261,
 "name": "是牛蛙不是田鸡"
 },
 {
 "uid": 3546696162216062,
 "name": "优优Youya"
 },
 {
 "uid": 489269897,
 "name": "贫道自有良方"
 },
 {
 "uid": 862688,
 "name": "屁屁2120"
 },
 {
 "uid": 3546652302379672,
 "name": "香香的丫丫"
 },
 {
 "uid": 3546678978153003,
 "name": "玉玉儿训犬师"
 },
 {
 "uid": 598808891,
 "name": "草莓果酱呐---破碎版"
 },
 {
 "uid": 3546660261071502,
 "name": "小阿姨娟娟"
 },
 {
 "uid": 3546610520820142,
 "name": "是雷蕾o"
 },
 {
 "uid": 156864372,
 "name": "玉玉超欲丫"
 },
 {
 "uid": 356319661,
 "name": "一二宝马"
 },
 {
 "uid": 3493139906038112,
 "name": "主人-是小狗呀"
 },
 {
 "uid": 3546661966055545,
 "name": "媛薇璐璐"
 },
 {
 "uid": 3546607838562688,
 "name": "榨汁甜"
 },
 {
 "uid": 3546603677812811,
 "name": "Brico不是鼻孔"
 },
 {
 "uid": 24777025,
 "name": "天使在包间"
 },
 {
 "uid": 389354634,
 "name": "罗拉小姐姐LOLA172HK"
 },
 {
 "uid": 619893614,
 "name": "心疼小繪的雪梨"
 },
 {
 "uid": 327262476,
 "name": "奶白的雪子懂吧"
 },
 {
 "uid": 233585973,
 "name": "简单快乐1点点"
 },
 {
 "uid": 3493279863670965,
 "name": "dasseinzumtode36"
 },
 {
 "uid": 3546650752584270,
 "name": "Quun666"
 },
 {
 "uid": 499664887,
 "name": "属于自己的上学记"
 },
 {
 "uid": 521621734,
 "name": "你心动了莓"
 },
 {
 "uid": 49586613,
 "name": "着火兔"
 },
 {
 "uid": 3546637798476445,
 "name": "可爱的甜甜甜吖"
 },
 {
 "uid": 3546594379041115,
 "name": "有点好看喔"
 },
 {
 "uid": 3546613798669004,
 "name": "t挠t"
 },
 {
 "uid": 2067264637,
 "name": "玉-足收藏家"
 },
 {
 "uid": 472459726,
 "name": "晨曦摄影"
 },
 {
 "uid": 3493091149351796,
 "name": "桃桃乐AA"
 },
 {
 "uid": 3537115210058435,
 "name": "Sally_可可"
 },
 {
 "uid": 3546632886945859,
 "name": "冷柠罂栀"
 },
 {
 "uid": 198759239,
 "name": "豆子观察员"
 },
 {
 "uid": 3546594311932164,
 "name": "你的甜宝宝嘤"
 },
 {
 "uid": 3546650964396707,
 "name": "舔狗频道"
 },
 {
 "uid": 3546582628698382,
 "name": "黑朱庄的小梦瑶"
 },
 {
 "uid": 1128291241,
 "name": "bili_1128291241"
 },
 {
 "uid": 525975495,
 "name": "质量杠杠"
 },
 {
 "uid": 3546651037796367,
 "name": "暖光白白"
 },
 {
 "uid": 1234984384,
 "name": "舞蹈生小鹿wawa"
 },
 {
 "uid": 3494360970692730,
 "name": "瀛姬女王馆"
 },
 {
 "uid": 3546636219321212,
 "name": "爱足人"
 },
 {
 "uid": 3546665998879282,
 "name": "蜜Uyou"
 },
 {
 "uid": 27220760,
 "name": "画画的花噎菜"
 },
 {
 "uid": 3546383703345837,
 "name": "小妖女YYWW"
 },
 {
 "uid": 387885017,
 "name": "woshi0007"
 },
 {
 "uid": 3546644758923426,
 "name": "依竹mm丶"
 },
 {
 "uid": 3546614729804152,
 "name": "瀛姬小世界"
 },
 {
 "uid": 3546667708057845,
 "name": "圆圆不点糖"
 },
 {
 "uid": 30212587,
 "name": "看美女的可达鸭"
 },
 {
 "uid": 3546665038383237,
 "name": "sy-施姨"
 },
 {
 "uid": 2284099,
 "name": "呆哩个呆ovo"
 },
 {
 "uid": 636835670,
 "name": "YOYO不容易"
 },
 {
 "uid": 3546667705961222,
 "name": "娇娇姐姐的日常"
 },
 {
 "uid": 3546382648478158,
 "name": "奈老师Nice"
 },
 {
 "uid": 3493296225651230,
 "name": "元气涂涂"
 },
 {
 "uid": 35400901,
 "name": "鱼肉禅师"
 },
 {
 "uid": 3546581546568168,
 "name": "Aaa草莓泡芙"
 },
 {
 "uid": 3546667544480482,
 "name": "bili_3546667544480482"
 },
 {
 "uid": 3546653137045601,
 "name": "哆哆jio不臭"
 },
 {
 "uid": 690543386,
 "name": "小阿茜-"
 },
 {
 "uid": 452528540,
 "name": "荔枝捞君"
 },
 {
 "uid": 3546622776576250,
 "name": "年糕超甜嘤"
 },
 {
 "uid": 128710136,
 "name": "MOTO一脚着"
 },
 {
 "uid": 3493274859866973,
 "name": "好看的日子还在后面呢"
 },
 {
 "uid": 3461577202207696,
 "name": "YIHAN艺涵优选"
 },
 {
 "uid": 3546586485361373,
 "name": "瀛姬泡泡"
 },
 {
 "uid": 3546664503610322,
 "name": "RQS白丝惠子"
 },
 {
 "uid": 3546667489953917,
 "name": "仰哥创业笔记"
 },
 {
 "uid": 331309184,
 "name": "请叫我李扒蒜"
 },
 {
 "uid": 3546653325789213,
 "name": "芊芊jio不臭"
 },
 {
 "uid": 2069659131,
 "name": "Ruler小蜜蜂"
 },
 {
 "uid": 3546578824464882,
 "name": "家有小姨子呀"
 },
 {
 "uid": 3493132974950430,
 "name": "元气の小瑶"
 },
 {
 "uid": 289669998,
 "name": "可茹儿元气酱"
 },
 {
 "uid": 661067416,
 "name": "-陈语臣"
 },
 {
 "uid": 591999801,
 "name": "江小帆530"
 },
 {
 "uid": 3546653954934916,
 "name": "眉目盈月落雪盯"
 },
 {
 "uid": 18494754,
 "name": "国民姨太太"
 },
 {
 "uid": 1219719215,
 "name": "AD缺点儿钙"
 },
 {
 "uid": 3546643452398506,
 "name": "不够热门的咱不看"
 },
 {
 "uid": 8597960,
 "name": "当年海山了"
 },
 {
 "uid": 89063813,
 "name": "小衣又"
 },
 {
 "uid": 572831434,
 "name": "枪琳旦羽"
 },
 {
 "uid": 12703040,
 "name": "一只颜妤"
 },
 {
 "uid": 3546669893290888,
 "name": "红眼搞笑哥"
 },
 {
 "uid": 3546567745210455,
 "name": "瑜丸姐姐"
 },
 {
 "uid": 476747418,
 "name": "瑞典鸽鸽"
 },
 {
 "uid": 1324510,
 "name": "关节拉伤"
 },
 {
 "uid": 316955009,
 "name": "Netflix影视"
 },
 {
 "uid": 38242635,
 "name": "抽象纪录片"
 },
 {
 "uid": 241380884,
 "name": "Ai吉祥哥"
 },
 {
 "uid": 82587270,
 "name": "铁牛猛猛冲"
 },
 {
 "uid": 411806998,
 "name": "今日不宜开祷"
 },
 {
 "uid": 1519398840,
 "name": "吃瓜君97"
 },
 {
 "uid": 1570875609,
 "name": "绝抉子"
 },
 {
 "uid": 490169921,
 "name": "我不爱吃桃桃"
 },
 {
 "uid": 661915856,
 "name": "你的睡眠助手"
 },
 {
 "uid": 439255575,
 "name": "氿妮儿"
 },
 {
 "uid": 282050375,
 "name": "英雄联盟a小孟"
 },
 {
 "uid": 3537120247417230,
 "name": "搁浅的哲"
 },
 {
 "uid": 3493296580069577,
 "name": "多肉菜汤圆灬"
 },
 {
 "uid": 1929935697,
 "name": "韩恩惠H"
 },
 {
 "uid": 3546630053693908,
 "name": "空档观察者"
 },
 {
 "uid": 3546606859193185,
 "name": "LUCKY带你看视频"
 },
 {
 "uid": 3493282111818202,
 "name": "陈玺颜"
 },
 {
 "uid": 480667464,
 "name": "笨笨小薯"
 },
 {
 "uid": 3546621126118224,
 "name": "一只小婷婷s"
 },
 {
 "uid": 2010746612,
 "name": "-猫的角-"
 },
 {
 "uid": 3546381031573584,
 "name": "玉儿干嘛呢s"
 },
 {
 "uid": 694405769,
 "name": "善良火花"
 },
 {
 "uid": 8739477,
 "name": "老实憨厚的笑笑"
 },
 {
 "uid": 94014240,
 "name": "芃S"
 },
 {
 "uid": 3493131748116735,
 "name": "鯊了个鱼"
 },
 {
 "uid": 3546589106801233,
 "name": "小雨的jio不臭"
 },
 {
 "uid": 97501660,
 "name": "吃花椒煮肉饺"
 },
 {
 "uid": 251133799,
 "name": "皖皖该睡觉啦"
 },
 {
 "uid": 3546587957561998,
 "name": "朵朵睡醒啦_"
 },
 {
 "uid": 1905253852,
 "name": "小鹿库库"
 },
 {
 "uid": 3546612131432751,
 "name": "蓝莓鲜奶"
 },
 {
 "uid": 3493110839511225,
 "name": "爱吃番茄炒蛋的小新"
 },
 {
 "uid": 90974346,
 "name": "梦梦探险家"
 },
 {
 "uid": 604509094,
 "name": "仙女发布收藏基地"
 },
 {
 "uid": 1303242617,
 "name": "录猫"
 },
 {
 "uid": 511798851,
 "name": "桃子的高跟鞋分享"
 },
 {
 "uid": 526352148,
 "name": "珊珊-lady"
 },
 {
 "uid": 277099731,
 "name": "小奶呆瓜丶"
 },
 {
 "uid": 3546603723950589,
 "name": "jio酱吖吖"
 },
 {
 "uid": 3546622292134144,
 "name": "开心的小博鸭"
 },
 {
 "uid": 3546380347901960,
 "name": "天花板麦麦"
 },
 {
 "uid": 493682377,
 "name": "芋泥啵耶"
 },
 {
 "uid": 1091840904,
 "name": "bili_1091840904"
 },
 {
 "uid": 3546380708612609,
 "name": "柔咩-"
 },
 {
 "uid": 89097601,
 "name": "重生之我是黑铁"
 },
 {
 "uid": 3546668026824932,
 "name": "你在脸红什么呐"
 },
 {
 "uid": 3546593517111418,
 "name": "流沙jana"
 },
 {
 "uid": 3546641825008189,
 "name": "七安妹妹-"
 },
 {
 "uid": 37189067,
 "name": "鹿鹿野仙"
 },
 {
 "uid": 383709862,
 "name": "旺旺队前来观察"
 },
 {
 "uid": 3546645025261782,
 "name": "爱合田玉的猫"
 },
 {
 "uid": 3546650584812261,
 "name": "凤凰院梓暄爱"
 },
 {
 "uid": 3546607115045055,
 "name": "酷黑莓子"
 },
 {
 "uid": 3546604317444846,
 "name": "小西柚有点闲"
 },
 {
 "uid": 362901684,
 "name": "追追漫剪"
 },
 {
 "uid": 3494352663874282,
 "name": "天青色等语嫣"
 },
 {
 "uid": 3546685240248338,
 "name": "yoyo没烦恼呀"
 },
 {
 "uid": 2081014526,
 "name": "闲坐有狸猫"
 },
 {
 "uid": 19171544,
 "name": "小鹿泡泡浴"
 },
 {
 "uid": 3546647260825801,
 "name": "这才是汤姆啊"
 },
 {
 "uid": 3546574441417273,
 "name": "番茄玉玉了"
 },
 {
 "uid": 279785515,
 "name": "董竹茵"
 },
 {
 "uid": 198758648,
 "name": "豆豆收藏者"
 },
 {
 "uid": 198757857,
 "name": "豆子观察者"
 },
 {
 "uid": 267673640,
 "name": "车瓶人虹泽RC"
 },
 {
 "uid": 3546641772579568,
 "name": "梨绘小崽-原慰"
 },
 {
 "uid": 3546664983857371,
 "name": "木子蓓蕾lorak"
 },
 {
 "uid": 3546559014767041,
 "name": "予予宝贝d"
 },
 {
 "uid": 217922247,
 "name": "筑雨未晴"
 },
 {
 "uid": 3546624626264376,
 "name": "RFGFD62A"
 },
 {
 "uid": 45222423,
 "name": "无可の"
 },
 {
 "uid": 38504778,
 "name": "Asura脩翋"
 },
 {
 "uid": 3546568519059706,
 "name": "对jio当歌"
 },
 {
 "uid": 591262963,
 "name": "哆哆是只喵_"
 },
 {
 "uid": 3546657356515767,
 "name": "反差小兔"
 },
 {
 "uid": 12216446,
 "name": "女乃雪"
 },
 {
 "uid": 3546676411238919,
 "name": "Aaaaa茉酱"
 },
 {
 "uid": 3546663601834195,
 "name": "稻妻采阳"
 },
 {
 "uid": 1686374271,
 "name": "可爱深红爱浅红z"
 },
 {
 "uid": 290294305,
 "name": "LXB00710"
 },
 {
 "uid": 3493080810392426,
 "name": "无聊的茶叶罐"
 },
 {
 "uid": 651291372,
 "name": "呆猫猫-"
 },
 {
 "uid": 32231110,
 "name": "豆兜篼蔸荳你玩儿"
 },
 {
 "uid": 3546570555394855,
 "name": "黑丝奶妈"
 },
 {
 "uid": 1748759156,
 "name": "585939012"
 },
 {
 "uid": 129823917,
 "name": "沙雕网友搞笑日常"
 },
 {
 "uid": 3546660833593587,
 "name": "上好佳佳y"
 },
 {
 "uid": 3546662645532795,
 "name": "小兔琪Qi"
 },
 {
 "uid": 362710421,
 "name": "泥大萌"
 },
 {
 "uid": 554601071,
 "name": "萱崽要减肥"
 },
 {
 "uid": 3546670453230342,
 "name": "男孩子休息室"
 },
 {
 "uid": 3494357193722260,
 "name": "瀛姬小电台"
 },
 {
 "uid": 376780187,
 "name": "清稚影记"
 },
 {
 "uid": 387618026,
 "name": "加加教主"
 },
 {
 "uid": 547038939,
 "name": "想想又困了袜"
 },
 {
 "uid": 3546659491416721,
 "name": "维C学妹dom今天双满啦"
 },
 {
 "uid": 3546382369557318,
 "name": "孙圆圆2号线"
 },
 {
 "uid": 3546650169575917,
 "name": "大橘不蕉绿"
 },
 {
 "uid": 3546676239272234,
 "name": "不是小气包u"
 },
 {
 "uid": 319447400,
 "name": "晴天娃娃鲁"
 },
 {
 "uid": 3546611890260159,
 "name": "奶油草莓酱酱-"
 },
 {
 "uid": 3546654353394280,
 "name": "甜悠吖"
 },
 {
 "uid": 3546580099532902,
 "name": "长靴and高跟鞋"
 },
 {
 "uid": 3494358712060408,
 "name": "玛丽莲做夢"
 },
 {
 "uid": 3546676300089369,
 "name": "小果几l"
 },
 {
 "uid": 3546669819889952,
 "name": "巴啦啦小魔仙酸"
 },
 {
 "uid": 1100573881,
 "name": "季晴阿"
 },
 {
 "uid": 3546638320667449,
 "name": "存够6个硬币换名字"
 },
 {
 "uid": 1601487141,
 "name": "胶胶-组织"
 },
 {
 "uid": 242517667,
 "name": "我去你猪啊"
 },
 {
 "uid": 1361463040,
 "name": "水曼夫人"
 },
 {
 "uid": 403078325,
 "name": "爱吃香菜sur"
 },
 {
 "uid": 3546667565451357,
 "name": "多麦泡泡鱼"
 },
 {
 "uid": 3546660477077825,
 "name": "后妈s-高端定制"
 },
 {
 "uid": 3546681052236122,
 "name": "丝丝入味哦"
 },
 {
 "uid": 3493118601071096,
 "name": "妗妗女神"
 },
 {
 "uid": 3546689805748998,
 "name": "保养家"
 },
 {
 "uid": 3546577593436585,
 "name": "程一姐姐S"
 },
 {
 "uid": 363298051,
 "name": "宇智波丶彦祖"
 },
 {
 "uid": 3546655993367214,
 "name": "果冻原胃"
 },
 {
 "uid": 3546649869683513,
 "name": "-娜大人-收宠"
 },
 {
 "uid": 3537124670310875,
 "name": "C宝CC宝"
 },
 {
 "uid": 3546666030336076,
 "name": "是黄蛋蛋呀Y"
 },
 {
 "uid": 3546675907922331,
 "name": "神厨小服贵"
 },
 {
 "uid": 1729977541,
 "name": "星期九响"
 },
 {
 "uid": 3546649116805888,
 "name": "萌宝儿不酸"
 },
 {
 "uid": 3546644570179994,
 "name": "s_反差"
 },
 {
 "uid": 3546673009658340,
 "name": "响叮当儿儿"
 },
 {
 "uid": 423602710,
 "name": "芝士椰汁ya"
 },
 {
 "uid": 3493108213877037,
 "name": "苏苏爱穿袜"
 },
 {
 "uid": 3546680309844434,
 "name": "淼淼爱穿搭"
 },
 {
 "uid": 3546667705961087,
 "name": "加浓袜"
 },
 {
 "uid": 397350622,
 "name": "in7z-"
 },
 {
 "uid": 3546654292576638,
 "name": "橘子味儿的少女_"
 },
 {
 "uid": 1333505291,
 "name": "美味超美味哦"
 },
 {
 "uid": 3546646466005016,
 "name": "岚小小原"
 },
 {
 "uid": 1306844961,
 "name": "七姨有点酸S"
 },
 {
 "uid": 3546667554966418,
 "name": "喵喵小可i"
 },
 {
 "uid": 3546668400117885,
 "name": "茉莉清茶配旺仔牛奶"
 },
 {
 "uid": 3546693614176580,
 "name": "我就是-W-"
 },
 {
 "uid": 3546640138898087,
 "name": "沐蕾I"
 },
 {
 "uid": 3546653820717983,
 "name": "娜娜老师_"
 },
 {
 "uid": 3546630590564447,
 "name": "不听话小狗呀"
 },
 {
 "uid": 3546679242393796,
 "name": "珠珠奈斯"
 },
 {
 "uid": 520022063,
 "name": "小奶jio"
 },
 {
 "uid": 3546642754046168,
 "name": "天上有星月"
 },
 {
 "uid": 503250108,
 "name": "茉莉奈yuyu"
 },
 {
 "uid": 3546646908504837,
 "name": "红扣子收集"
 },
 {
 "uid": 3546668521752671,
 "name": "红姐457"
 },
 {
 "uid": 9224465,
 "name": "萌萌的gogo日记"
 },
 {
 "uid": 385823027,
 "name": "豆子收藏员"
 },
 {
 "uid": 259528679,
 "name": "可锡skylv"
 },
 {
 "uid": 6791307,
 "name": "书玉枝"
 },
 {
 "uid": 81055168,
 "name": "晓晓哀"
 },
 {
 "uid": 108029532,
 "name": "半与_"
 },
 {
 "uid": 10967610,
 "name": "纱雾sasa"
 },
 {
 "uid": 3546646713469610,
 "name": "JK院长"
 },
 {
 "uid": 286306815,
 "name": "每天心情愉悦丫"
 },
 {
 "uid": 3546659956984500,
 "name": "s女王s大人"
 },
 {
 "uid": 3546662247074595,
 "name": "不戴口罩收藏家"
 },
 {
 "uid": 3494378161047894,
 "name": "小团嫂是团子妈"
 },
 {
 "uid": 67283900,
 "name": "帅的精动党"
 },
 {
 "uid": 3546644041698203,
 "name": "易直播足迹资深老玩家"
 },
 {
 "uid": 3546623401528123,
 "name": "兮芯S"
 },
 {
 "uid": 3546669152995567,
 "name": "乌龙茶wwQ"
 },
 {
 "uid": 454950290,
 "name": "晴静子m"
 },
 {
 "uid": 314406222,
 "name": "七两四"
 },
 {
 "uid": 398385878,
 "name": "时光读者_"
 },
 {
 "uid": 3546564081485900,
 "name": "珍泥坊汁姬"
 },
 {
 "uid": 3537116669675846,
 "name": "桃桃老师大三了"
 },
 {
 "uid": 501663225,
 "name": "超不可爱小朋友nice"
 },
 {
 "uid": 397418505,
 "name": "无人识我经纬"
 },
 {
 "uid": 3546641185376923,
 "name": "照与紫嫣得劲大爷"
 },
 {
 "uid": 3493270617327956,
 "name": "小颖奈"
 },
 {
 "uid": 3493294860405498,
 "name": "幻娜Hana"
 },
 {
 "uid": 98914959,
 "name": "甘罗大人-"
 },
 {
 "uid": 411683839,
 "name": "波妞奶泡"
 },
 {
 "uid": 3546602782329445,
 "name": "是小桃子的桃"
 },
 {
 "uid": 3546590354606651,
 "name": "媛了咕咚oo"
 },
 {
 "uid": 624303293,
 "name": "林晚晚不说晚安"
 },
 {
 "uid": 3546390265334590,
 "name": "是学姐呀s"
 },
 {
 "uid": 3546637404212014,
 "name": "啊空收藏室"
 },
 {
 "uid": 140528982,
 "name": "甜桃的甜子"
 },
 {
 "uid": 3493261985450277,
 "name": "仙女厅"
 },
 {
 "uid": 118432464,
 "name": "Wallpaper壁纸小屋"
 },
 {
 "uid": 3493104306883464,
 "name": "小宇闲置-女高"
 },
 {
 "uid": 1046003822,
 "name": "萝卜酱可爱"
 },
 {
 "uid": 355569902,
 "name": "汐颜女王ri"
 },
 {
 "uid": 255182604,
 "name": "今天风大吗"
 },
 {
 "uid": 3546599225559801,
 "name": "足迹直播大亨"
 },
 {
 "uid": 645938652,
 "name": "心碎咖啡y"
 },
 {
 "uid": 1655696392,
 "name": "安言-------------"
 },
 {
 "uid": 476953580,
 "name": "肥肥莉莉可"
 }
 ]